Division,WeightClassKg,Place,Name,Team,BodyweightKg,Best3SquatKg,Best3BenchKg,Best3DeadliftKg,TotalKg,Equipment,Event,Sex,BirthDate
Boys,51.71,1,Ozzy Chavez,Floresville,48.76,83.91,45.36,102.06,231.33,Unlimited,SBD,M,
Boys,55.79,1,Jaxon Anderson,Castroville Medina Valley,55.61,151.95,102.06,165.56,419.57,Unlimited,SBD,M,
Boys,55.79,2,Americo Munoz,San Antonio Southwest Legacy,55.38,149.69,111.13,154.22,415.04,Unlimited,SBD,M,
Boys,55.79,3,Benito Leal,San Antonio Southwest,55.57,158.76,92.99,158.76,410.5,Unlimited,SBD,M,
Boys,55.79,4,Lee Cruz,Floresville,55.16,142.88,108.86,151.95,403.7,Unlimited,SBD,M,
Boys,55.79,5,Jack Zarosky,Floresville,53.75,111.13,79.38,136.08,326.59,Unlimited,SBD,M,
Boys,55.79,DQ,Isiah Rodridiguez,Castroville Medina Valley,54.84,,,,,Unlimited,SBD,M,
Boys,59.87,1,Clayton Barron,Castroville Medina Valley,59.51,226.8,131.54,201.85,560.19,Unlimited,SBD,M,
Boys,59.87,2,Jeffrey Rodriguez,San Antonio Southside,59.38,222.26,127.01,197.31,546.58,Unlimited,SBD,M,
Boys,59.87,3,Silas Inclan,San Antonio Southside,57.97,147.42,83.91,149.69,381.02,Unlimited,SBD,M,
Boys,59.87,4,Logan Lewis,Floresville,59.38,129.27,81.65,170.1,381.02,Unlimited,SBD,M,
Boys,59.87,5,Vincent Gonzales,Castroville Medina Valley,57.15,142.88,77.11,149.69,369.68,Unlimited,SBD,M,
Boys,59.87,6,Aniekin Bay,San Antonio Cole,59.19,154.22,68.04,124.74,347,Unlimited,SBD,M,
Boys,59.87,7,Ryan Tobiason,San Antonio Cole,59.87,120.2,79.38,122.47,322.05,Unlimited,SBD,M,
Boys,59.87,DQ,Chris Lowe,San Antonio Kennedy,59.6,185.97,,,,Unlimited,SBD,M,
Boys,67.13,1,Grant Griffin,San Antonio Southwest,67.13,197.31,142.88,201.85,542.04,Unlimited,SBD,M,
Boys,67.13,2,Israel Chavez,San Antonio Cole,66.36,188.24,111.13,224.53,523.9,Unlimited,SBD,M,
Boys,67.13,3,Owen Jarrettt,Castroville Medina Valley,65.05,174.63,106.59,195.04,476.27,Unlimited,SBD,M,
Boys,67.13,4,Andrew Briones,Floresville,65.63,183.7,106.59,165.56,455.86,Unlimited,SBD,M,
Boys,67.13,5,Jace Olle,Pleasanton,66.09,167.83,106.59,179.17,453.59,Unlimited,SBD,M,
Boys,67.13,6,Chaz Fleeman,San Antonio Southwest,64.64,161.03,92.99,156.49,410.5,Unlimited,SBD,M,
Boys,67.13,7,Jason Longinos,San Antonio Cole,65.54,149.69,92.99,158.76,401.43,Unlimited,SBD,M,
Boys,67.13,8,Reynaldo Solla,San Antonio Cole,62.69,151.95,79.38,163.29,394.63,Unlimited,SBD,M,
Boys,67.13,9,Dillon Mora,Marion,63.87,138.35,92.99,154.22,385.55,Unlimited,SBD,M,
Boys,67.13,10,Kevin Taylor,Converse Judson,65.45,133.81,61.23,145.15,340.19,Unlimited,SBD,M,
Boys,67.13,11,Uriah Bennett,Converse Judson,63.46,111.13,74.84,142.88,328.85,Unlimited,SBD,M,
Boys,67.13,12,Logan Esquivel,Converse Judson,67.09,102.06,81.65,142.88,326.59,Unlimited,SBD,M,
Boys,67.13,13,Evan Robles,Castroville Medina Valley,61.96,117.93,63.5,131.54,312.98,Unlimited,SBD,M,
Boys,67.13,DQ,Luke Sowell,Marion,65.63,,,,,Unlimited,SBD,M,
Boys,67.13,DQ,Alijah Scardino,Marion,66.32,,,,,Unlimited,SBD,M,
Boys,74.84,1,Roman Martinez,Pleasanton,73.16,231.33,149.69,213.19,594.21,Unlimited,SBD,M,
Boys,74.84,2,Scott Gantzler,Castroville Medina Valley,73.16,174.63,122.47,258.55,555.65,Unlimited,SBD,M,
Boys,74.84,3,Diego Mascorro,San Antonio Southwest,73.75,224.53,111.13,206.38,542.04,Unlimited,SBD,M,
Boys,74.84,4,Sebastian Medina Hernandez,San Antonio Southwest Legacy,73.98,185.97,124.74,195.04,505.76,Unlimited,SBD,M,
Boys,74.84,5,Josh Martinez,Floresville,70.72,201.85,124.74,176.9,503.49,Unlimited,SBD,M,
Boys,74.84,6,Justice Ruiz,San Antonio St. Anthony Catholic High School,73.07,147.42,117.93,226.8,492.15,Unlimited,SBD,M,
Boys,74.84,7,Eli Morales,San Antonio Southwest Legacy,73.98,172.37,129.27,183.7,485.34,Unlimited,SBD,M,
Boys,74.84,8,Justin Carrisal,San Antonio Veterans Memorial,74.84,192.78,97.52,179.17,469.47,Unlimited,SBD,M,
Boys,74.84,9,Luis Alba,San Antonio Southwest,74.84,165.56,111.13,172.37,449.06,Unlimited,SBD,M,
Boys,74.84,10,Mason Esparza,San Antonio Holy Cross,73.53,176.9,106.59,163.29,446.79,Unlimited,SBD,M,
Boys,74.84,11,Daniel Schaefer,Floresville,73.53,183.7,88.45,161.03,433.18,Unlimited,SBD,M,
Boys,74.84,12,Anthony Vazquez,San Antonio Southwest Legacy,71.49,151.95,108.86,163.29,424.11,Unlimited,SBD,M,
Boys,74.84,13,Julian Storino,Castroville Medina Valley,73.62,151.95,106.59,151.95,410.5,Unlimited,SBD,M,
Boys,74.84,14,Josh Aguilar,Marion,74.57,158.76,106.59,136.08,401.43,Unlimited,SBD,M,
Boys,74.84,15,Michael Dodson,Pleasanton,67.31,138.35,70.31,183.7,392.36,Unlimited,SBD,M,
Boys,74.84,16,Mason Flores,San Antonio Veterans Memorial,74.84,133.81,83.91,174.63,392.36,Unlimited,SBD,M,
Boys,74.84,17,Byron Brady,San Antonio Cole,70.03,142.88,74.84,158.76,376.48,Unlimited,SBD,M,
Boys,74.84,18,Ellis Turner,Marion,74.8,142.88,79.38,149.69,371.95,Unlimited,SBD,M,
Boys,74.84,19,Noah Herman,San Antonio Cole,71.12,136.08,74.84,142.88,353.8,Unlimited,SBD,M,
Boys,74.84,20,Miguel Alcorta,Jourdanton,70.62,81.65,70.31,108.86,260.82,Unlimited,SBD,M,
Boys,74.84,21,Noah Guerra,Jourdanton,74.12,81.65,63.5,111.13,256.28,Unlimited,SBD,M,
Boys,74.84,DQ,Louie Lopez,San Antonio Holy Cross,71.08,192.78,,,,Unlimited,SBD,M,
Boys,82.1,1,Raymon Buentello,Castroville Medina Valley,81.92,219.99,167.83,219.99,607.81,Unlimited,SBD,M,
Boys,82.1,2,Eric Gonzales,Jourdanton,82.01,217.72,138.35,188.24,544.31,Unlimited,SBD,M,
Boys,82.1,3,Ervin Visperas,San Antonio Southwest,81.74,215.46,117.93,195.04,528.44,Unlimited,SBD,M,
Boys,82.1,4,Isaiah Salas,San Antonio Southwest,82.1,188.24,117.93,217.72,523.9,Unlimited,SBD,M,
Boys,82.1,5,Matthew Cottrell,Floresville,81.37,183.7,115.67,183.7,483.08,Unlimited,SBD,M,
Boys,82.1,6,Chris Ortiz,Pleasanton,75.61,181.44,102.06,183.7,467.2,Unlimited,SBD,M,
Boys,82.1,7,Carlos Reyes,Floresville,79.74,183.7,102.06,170.1,455.86,Unlimited,SBD,M,
Boys,82.1,8,Alvin Sanchez,San Antonio Southwest Legacy,81.28,165.56,106.59,181.44,453.59,Unlimited,SBD,M,
Boys,82.1,9,Gabe Montero,Converse Judson,80.6,142.88,106.59,149.69,399.16,Unlimited,SBD,M,
Boys,82.1,10,Logan Bustamante,Marion,80.88,161.03,83.91,147.42,392.36,Unlimited,SBD,M,
Boys,82.1,11,Abel Gallegos,Jourdanton,78.74,113.4,92.99,154.22,360.61,Unlimited,SBD,M,
Boys,82.1,12,Dallas Sheffield,Marion,75.98,111.13,52.16,129.27,292.57,Unlimited,SBD,M,
Boys,82.1,13,Derek Guerrero,San Antonio Veterans Memorial,82.1,83.91,65.77,120.2,269.89,Unlimited,SBD,M,
Boys,82.1,DQ,Luke Jones,San Antonio Veterans Memorial,82.1,,,,,Unlimited,SBD,M,
Boys,82.1,DQ,Jacob Escalera,Pleasanton,75.57,,,,,Unlimited,SBD,M,
Boys,89.81,1,Jaren Canellis,San Antonio Southwest,88,231.33,138.35,233.6,603.28,Unlimited,SBD,M,
Boys,89.81,2,Reagan Gonzales,San Antonio Southwest,89.22,224.53,124.74,226.8,576.06,Unlimited,SBD,M,
Boys,89.81,3,Micah Heneke,San Antonio Southside,89.22,217.72,145.15,201.85,564.72,Unlimited,SBD,M,
Boys,89.81,4,William Rethaber,Floresville,84.73,167.83,99.79,188.24,455.86,Unlimited,SBD,M,
Boys,89.81,5,Rodrigo Urquieta,San Antonio Cole,84.37,165.56,106.59,181.44,453.59,Unlimited,SBD,M,
Boys,89.81,6,Wes Krueger,San Antonio Southwest,84.73,156.49,108.86,179.17,444.52,Unlimited,SBD,M,
Boys,89.81,7,Charles Paogofie,San Antonio Cole,86.91,167.83,83.91,192.78,444.52,Unlimited,SBD,M,
Boys,89.81,8,Jordan Jimenez,San Antonio Holy Cross,89.31,151.95,83.91,179.17,415.04,Unlimited,SBD,M,
Boys,89.81,9,Johnathan Sumbler,Converse Judson,85.37,165.56,88.45,158.76,412.77,Unlimited,SBD,M,
Boys,89.81,10,Ethan Harrison,San Antonio Holy Cross,87.54,147.42,83.91,170.1,401.43,Unlimited,SBD,M,
Boys,89.81,11,Yamil Santiago,San Antonio Cole,89.36,133.81,90.72,167.83,392.36,Unlimited,SBD,M,
Boys,89.81,12,John Hudgins,Converse Judson,88.36,136.08,83.91,158.76,378.75,Unlimited,SBD,M,
Boys,89.81,DQ,Alex Hipolito,Converse Judson,89.45,,,,,Unlimited,SBD,M,
Boys,99.79,1,Bernardo Bernabe,San Antonio Kennedy,93.39,294.84,195.04,272.16,762.04,Unlimited,SBD,M,
Boys,99.79,2,A J Eguia,San Antonio Holy Cross,94.57,219.99,129.27,226.8,576.06,Unlimited,SBD,M,
Boys,99.79,3,Izaac Spain,Pleasanton,99.65,222.26,158.76,188.24,569.26,Unlimited,SBD,M,
Boys,99.79,4,Javier Palacios,San Antonio Southwest,98.84,192.78,161.03,192.78,546.58,Unlimited,SBD,M,
Boys,99.79,5,Ruben Gallegos,Jourdanton,98.47,210.92,127.01,174.63,512.56,Unlimited,SBD,M,
Boys,99.79,6,George Casarez,San Antonio Holy Cross,91.76,190.51,147.42,172.37,510.29,Unlimited,SBD,M,
Boys,99.79,7,Carlos Gallegos,Jourdanton,90.76,195.04,133.81,179.17,508.02,Unlimited,SBD,M,
Boys,99.79,8,Jose Romero,San Antonio Kennedy,96.48,217.72,108.86,181.44,508.02,Unlimited,SBD,M,
Boys,99.79,9,Christopher Ponce,San Antonio Holy Cross,96.25,195.04,111.13,199.58,505.76,Unlimited,SBD,M,
Boys,99.79,10,Patrick Orellana,Converse Judson,97.98,181.44,108.86,188.24,478.54,Unlimited,SBD,M,
Boys,99.79,11,Evan Romero,Jourdanton,98.02,115.67,92.99,165.56,374.21,Unlimited,SBD,M,
Boys,99.79,12,Zion Louis,Converse Judson,98.93,115.67,70.31,151.95,337.93,Unlimited,SBD,M,
Boys,109.77,1,Ethan Paz,San Antonio Southwest,103.56,263.08,151.95,201.85,616.89,Unlimited,SBD,M,
Boys,109.77,2,Isaac Hernandez,San Antonio Kennedy,100.92,249.48,133.81,226.8,610.08,Unlimited,SBD,M,
Boys,109.77,3,Fabian Medina,San Antonio Kennedy,107.59,226.8,165.56,215.46,607.81,Unlimited,SBD,M,
Boys,109.77,4,Alejandro Hernandez,Castroville Medina Valley,107.73,208.65,151.95,247.21,607.81,Unlimited,SBD,M,
Boys,109.77,5,Luis Rubio,San Antonio Southwest Legacy,105.28,226.8,154.22,208.65,589.67,Unlimited,SBD,M,
Boys,109.77,6,Nicholas Morales,San Antonio Southside,107.23,195.04,129.27,206.38,530.7,Unlimited,SBD,M,
Boys,109.77,7,Matthew Sanchez,Marion,108.64,206.38,124.74,195.04,526.17,Unlimited,SBD,M,
Boys,109.77,8,Robert Dillard,San Antonio Southwest Legacy,106.05,172.37,149.69,174.63,496.68,Unlimited,SBD,M,
Boys,109.77,9,Landon Chavez,Jourdanton,107.46,192.78,106.59,195.04,494.42,Unlimited,SBD,M,
Boys,109.77,10,Felix King,Castroville Medina Valley,101.06,206.38,113.4,165.56,485.34,Unlimited,SBD,M,
Boys,109.77,11,Jayson Martinez,San Antonio Holy Cross,105.28,183.7,106.59,188.24,478.54,Unlimited,SBD,M,
Boys,109.77,12,David Guzman,Jourdanton,101.97,158.76,113.4,170.1,442.25,Unlimited,SBD,M,
Boys,109.77,13,Fernando Benavides,San Antonio Holy Cross,103.46,129.27,83.91,176.9,390.09,Unlimited,SBD,M,
Boys,109.77,14,Bodie Roger,Jourdanton,103.33,97.52,83.91,120.2,301.64,Unlimited,SBD,M,
Boys,124.74,1,Roland Segovia,San Antonio Southwest Legacy,123.15,294.84,185.97,244.94,725.75,Unlimited,SBD,M,
Boys,124.74,2,Omar Torres,Floresville,118.34,256.28,167.83,256.28,680.39,Unlimited,SBD,M,
Boys,124.74,3,Isaiah Sanchez,San Antonio Southwest Legacy,111.67,192.78,172.37,226.8,591.94,Unlimited,SBD,M,
Boys,124.74,4,Aiden Mata,San Antonio Southwest Legacy,112.35,215.46,163.29,208.65,587.4,Unlimited,SBD,M,
Boys,124.74,5,Angel Sanchez,Marion,123.06,176.9,195.04,208.65,580.6,Unlimited,SBD,M,
Boys,124.74,6,Timothy Barrientes,Floresville,120.34,213.19,122.47,222.26,557.92,Unlimited,SBD,M,
Boys,124.74,7,Adrian Ruiz,San Antonio Veterans Memorial,124.74,192.78,113.4,192.78,498.95,Unlimited,SBD,M,
Boys,124.74,8,David Dominguez,San Antonio Southwest,116.89,174.63,117.93,201.85,494.42,Unlimited,SBD,M,
Boys,124.74,9,Joshua Gonzalez,San Antonio Holy Cross,120.79,165.56,124.74,183.7,474,Unlimited,SBD,M,
Boys,124.74,10,Tanner Thomas,Pleasanton,110.5,170.1,79.38,165.56,415.04,Unlimited,SBD,M,
Boys,139.71,1,Jacob Perez,San Antonio Southwest Legacy,128.59,215.46,136.08,181.44,532.97,Unlimited,SBD,M,
Boys,139.71,2,Sonny Alvarez,Pleasanton,128.23,183.7,102.06,179.17,464.93,Unlimited,SBD,M,
Boys,139.71,3,Isaac Garza,Marion,126.78,127.01,97.52,140.61,365.14,Unlimited,SBD,M,
Boys,139.71+,1,Luigi Tirado,San Antonio Southside,148.78,244.94,129.27,213.19,587.4,Unlimited,SBD,M,
Boys,139.71+,2,Julian Weddel,San Antonio Holy Cross,144.06,174.63,102.06,154.22,430.91,Unlimited,SBD,M,
Boys,139.71+,3,Jordan Romero,San Antonio Southwest Legacy,155.13,176.9,92.99,156.49,426.38,Unlimited,SBD,M,
Boys,,NS,Xaiver Fears,Castroville Medina Valley,,,,,,Unlimited,SBD,M,
