Place,WeightClassKg,Division,Sex,Name,BirthYear,Country,BodyweightKg,Best3SquatKg,Best3BenchKg,Best3DeadliftKg,TotalKg,Event,Equipment
1,59,Open,M,Ayumi Hisatsune,1997,Japan,58.95,207.5,130,248,585.5,SBD,Raw
2,59,Open,M,Yi-Chun Lin,1994,Taiwan,58.85,202.5,125,222.5,550,SBD,Raw
3,59,Open,M,Adlet Moldagaliev,1997,Kazakhstan,58.75,180,120,245,545,SBD,Raw
4,59,Open,M,Dharmendra Yadav #1,1993,India,58.3,190,125,200,515,SBD,Raw
5,59,Open,M,Dmitriy Vykhodtsev,1989,Kazakhstan,54.5,182.5,125,200,507.5,SBD,Raw
6,59,Open,M,Min Ho Park,1995,South Korea,58.6,170,117.5,195,482.5,SBD,Raw
7,59,Open,M,Kenneth Kaden Yu Wai Chin,1990,Malaysia,57.95,155,100,200,455,SBD,Raw
1,66,Open,M,Alexandr Kuramshin,1986,Kazakhstan,65.65,220,147.5,240,607.5,SBD,Raw
2,66,Open,M,Javid Garashov,1994,Kazakhstan,65.65,200,147.5,242.5,590,SBD,Raw
3,66,Open,M,Eric Smulders,1989,Thailand,65,200,140,245,585,SBD,Raw
4,66,Open,M,Alexandr Vaskov,1986,Kazakhstan,65,190,140,210,540,SBD,Raw
1,74,Open,M,Clinton Lee #1,1993,Singapore,72.95,260,162.5,307.5,730,SBD,Raw
2,74,Open,M,Yakov Ionin,1986,Kazakhstan,72.7,262.5,175,290,727.5,SBD,Raw
3,74,Open,M,Yuki Shibuya,1985,Japan,73.45,240,162.5,240,642.5,SBD,Raw
4,74,Open,M,Amantay Zhandilda,1995,Kazakhstan,73.2,220,152.5,252.5,625,SBD,Raw
5,74,Open,M,Barak Albedaiwi,1991,Kuwait,73.95,220,132.5,265,617.5,SBD,Raw
6,74,Open,M,Kelvin Yeoh Han Pin,1989,Malaysia,72.65,217.5,150,232.5,600,SBD,Raw
7,74,Open,M,Chi Kwon Jung,1994,South Korea,72.5,200,132.5,265,597.5,SBD,Raw
8,74,Open,M,Sulaiman Hamadah,1990,Kuwait,72.6,197.5,120,232.5,550,SBD,Raw
9,74,Open,M,Kiu-Wan Law,1992,Hong Kong,73.15,150,152.5,200,502.5,SBD,Raw
10,74,Open,M,Mansour Almarzooqi,1995,UAE,72.8,70,170,210,450,SBD,Raw
DQ,74,Open,M,Duvjid Boldbaatar,1994,Mongolia,74,230,,242.5,,SBD,Raw
1,83,Open,M,Nikolay Zemtsov,1992,Kazakhstan,82.7,265,177.5,320,762.5,SBD,Raw
2,83,Open,M,Aman Kapyshev,1987,Kazakhstan,82.6,278,180,270,728,SBD,Raw
3,83,Open,M,Gayrat Ismailov,1987,Uzbekistan,80.7,235,162.5,272.5,670,SBD,Raw
4,83,Open,M,Zhu Jiang,1988,Hong Kong,82.45,235,152.5,270,657.5,SBD,Raw
5,83,Open,M,Ali Alnajdi,1989,Kuwait,82.2,215,170,250,635,SBD,Raw
6,83,Open,M,Yevgeniy Kim,1984,Kazakhstan,81.85,220,160,230,610,SBD,Raw
7,83,Open,M,Farrukh Shakirov,1987,Tajikistan,81.8,140,165,170,475,SBD,Raw
1,93,Open,M,Igor Zdorovets,1987,Kazakhstan,91.7,262.5,202.5,280,745,SBD,Raw
2,93,Open,M,Wei-Chun Wu,1990,Taiwan,91.85,270,190,270,730,SBD,Raw
3,93,Open,M,Akbari Mehrdad,1988,Iran,92.4,260,180,265,705,SBD,Raw
4,93,Open,M,Maxim Samtsov,1990,Kazakhstan,91.2,245,205,250,700,SBD,Raw
5,93,Open,M,Sergey Zdorovets,1984,Kazakhstan,92.1,265,170,265,700,SBD,Raw
6,93,Open,M,Minjbaatar Sainkhuu,1988,Mongolia,92.9,225,175,290,690,SBD,Raw
7,93,Open,M,Afzalsho Kholov,1995,Tajikistan,92.9,240,207.5,230,677.5,SBD,Raw
8,93,Open,M,Abdalla Almaazmi,1992,UAE,87.75,210,155,280,645,SBD,Raw
9,93,Open,M,Dae-Gil Lee,1983,South Korea,92.55,230,165,220,615,SBD,Raw
1,105,Open,M,Ilya Maslov,1989,Kazakhstan,101.4,285,210,295,790,SBD,Raw
2,105,Open,M,Alexandr Miroshnikov,1987,Kazakhstan,103.3,270,205,285,760,SBD,Raw
3,105,Open,M,Yuki Hirai,1984,Japan,103.7,255,177.5,275,707.5,SBD,Raw
4,105,Open,M,Zainulabdeen Waheed,1993,Iraq,103.6,257.5,142.5,290,690,SBD,Raw
5,105,Open,M,Rustam Khamdamov,1993,Uzbekistan,96.2,237.5,175,245,657.5,SBD,Raw
6,105,Open,M,Khurshed Niyazov,1986,Tajikistan,100.3,170,195,170,535,SBD,Raw
1,120,Open,M,Sen Yang,1994,Taiwan,117.4,340,240,290,870,SBD,Raw
2,120,Open,M,Danil Fedoryak,1990,Kazakhstan,117.2,310,200,330,840,SBD,Raw
3,120,Open,M,Evgeniy Kapralov,1993,Uzbekistan,119.4,292.5,192.5,332.5,817.5,SBD,Raw
4,120,Open,M,Yevgeniy Krasnovskiy,1979,Kazakhstan,116.2,275,192.5,302.5,770,SBD,Raw
5,120,Open,M,Ruslan Sirazov,1987,Tajikistan,118.7,280,207.5,280,767.5,SBD,Raw
6,120,Open,M,Tomotake Iwanami,1980,Japan,119.7,280,160,250,690,SBD,Raw
7,120,Open,M,Faisal Alshammari,1989,Kuwait,118.7,225,177.5,270,672.5,SBD,Raw
1,120+,Open,M,Mehdi Mafi Gholami,1982,Iran,145.9,342.5,202.5,335.5,880.5,SBD,Raw
2,120+,Open,M,Nelson Chui Chee Chung,1984,Malaysia,150.9,305,180,280,765,SBD,Raw
3,120+,Open,M,Vickram Jeet Singh,1996,India,150.2,320,187.5,250,757.5,SBD,Raw
4,120+,Open,M,Shota Yamamoto,1989,Japan,153.6,272.5,192.5,262.5,727.5,SBD,Raw
DQ,120+,Open,M,Shatlyk Rahmanov,1982,Turkmenistan,122.7,280,197.5,,,SBD,Raw
DQ,120+,Open,M,Yevgeniy Yevdokimov,1980,Kazakhstan,128.7,300,,280,,SBD,Raw
1,53,Sub-Juniors,M,Diyaz Mukhamedin,2001,Kazakhstan,53,155,105,160,420,SBD,Raw
2,53,Sub-Juniors,M,Raj Kure Dhruv,2002,India,52.2,137.5,87.5,182.5,407.5,SBD,Raw
3,53,Sub-Juniors,M,Shyngys Yelzhanov,2001,Kazakhstan,52.5,130,116,145,391,SBD,Raw
4,53,Sub-Juniors,M,Kuan-Chung Chen,2001,Taiwan,52.45,135,90,162.5,387.5,SBD,Raw
DQ,53,Sub-Juniors,M,Mudiyanselage Sameera Pethum Udara Konara,2004,Sri Lanka,51.65,,115,150,,SBD,Raw
1,59,Sub-Juniors,M,Boris Bukatka,2003,Kazakhstan,57.35,170,102.5,185,457.5,SBD,Raw
2,59,Sub-Juniors,M,Anton Marchenko,2003,Kazakhstan,58.45,155,125,170,450,SBD,Raw
3,59,Sub-Juniors,M,Ruslan Kozhevnikov,2003,Kazakhstan,59,145,100,200,445,SBD,Raw
4,59,Sub-Juniors,M,Brandon Kai Xu Er,2001,Singapore,58.5,142.5,120,180,442.5,SBD,Raw
5,59,Sub-Juniors,M,Samandar Talatov,2003,Kazakhstan,58.5,122.5,80,140,342.5,SBD,Raw
6,59,Sub-Juniors,M,Schohnazar Agullanazarov,2004,Kazakhstan,53.45,105,70,140,315,SBD,Raw
1,66,Sub-Juniors,M,Aren Joy Fernandes,2001,India,65.3,180,97.5,215,492.5,SBD,Raw
2,66,Sub-Juniors,M,Danil Kolesnikov,2001,Kazakhstan,65.6,170,100,220,490,SBD,Raw
3,66,Sub-Juniors,M,Akylbek Sydykov,2001,Kazakhstan,65.2,170,120,190,480,SBD,Raw
4,66,Sub-Juniors,M,Kenshin Konishi,2003,Japan,64.15,140,105,160,405,SBD,Raw
1,74,Sub-Juniors,M,Vadim Plakhotnikov,2003,Kazakhstan,70.7,230,125,250,605,SBD,Raw
2,74,Sub-Juniors,M,Redha Al-Sarray,2001,Iraq,71.2,210,125,220,555,SBD,Raw
3,74,Sub-Juniors,M,Artem Tarada,2001,Kazakhstan,73.1,192.5,140,200,532.5,SBD,Raw
1,83,Sub-Juniors,M,Konstantin Lisnichenko,2001,Kazakhstan,77,217.5,140,225,582.5,SBD,Raw
2,83,Sub-Juniors,M,Gharbawee,2001,Iraq,77.5,202.5,107.5,222.5,532.5,SBD,Raw
3,83,Sub-Juniors,M,Nursultan Kairzhan,2002,Kazakhstan,79.95,175,115,180,470,SBD,Raw
1,93,Sub-Juniors,M,Lev Krasnik,2003,Kazakhstan,90.45,225,137.5,225,587.5,SBD,Raw
DQ,93,Sub-Juniors,M,Mohammed Abdulameer,2001,Iraq,91,225,,227.5,,SBD,Raw
1,105,Sub-Juniors,M,Azizbek Amanov,2001,Kazakhstan,103.6,225,135,247.5,607.5,SBD,Raw
2,105,Sub-Juniors,M,Temirlan Nurlanov,2002,Kazakhstan,102.4,232.5,140,232.5,605,SBD,Raw
3,105,Sub-Juniors,M,Ahmed Al-Murshidawee,2001,Iraq,102.6,220,105,210,535,SBD,Raw
4,105,Sub-Juniors,M,Vasiliy Achkasov,2003,Kazakhstan,95.8,190,105,175,470,SBD,Raw
1,120,Sub-Juniors,M,Oun Adleehmawi,2002,Iraq,118.7,272.5,147.5,240,660,SBD,Raw
2,120,Sub-Juniors,M,Nikita Rudenko,2001,Kazakhstan,120,192.5,150,202.5,545,SBD,Raw
3,120,Sub-Juniors,M,Indrajith Silva Kakolya Jamond,2001,Sri Lanka,106.2,197.5,117.5,227.5,542.5,SBD,Raw
1,120+,Sub-Juniors,M,Yang-Lun Kou,2002,Taiwan,122.2,245,140,205,590,SBD,Raw
2,120+,Sub-Juniors,M,Abdullah Tufaili,2001,Iraq,124.6,225,135,217.5,577.5,SBD,Raw
3,120+,Sub-Juniors,M,Anthony Silva Nivendra Praviska,2001,Sri Lanka,126.4,210,130,215,555,SBD,Raw
4,120+,Sub-Juniors,M,Ali Al Shehhi,2001,UAE,121.6,100,107.2,170,377.2,SBD,Raw
1,53,Juniors,M,Sharath Poojary,1999,India,52.7,135,85,185,405,SBD,Raw
2,53,Juniors,M,Takurou Teraoka,1998,Japan,52.75,127.5,95,142.5,365,SBD,Raw
3,53,Juniors,M,Ali Hasan,1997,Iraq,52.2,120,82.5,160,362.5,SBD,Raw
4,53,Juniors,M,Yota Tanabe,1998,Japan,43.85,120,72.5,160,352.5,SBD,Raw
5,53,Juniors,M,Muhtada Al-Helli,1998,Iraq,52.4,105,65,157.5,327.5,SBD,Raw
1,59,Juniors,M,Junto Tsuchiya,2000,Japan,57.4,187.5,122.5,192.5,502.5,SBD,Raw
2,59,Juniors,M,Meyrbek Zharyikassynov,2000,Kazakhstan,58.4,152.5,107.5,170,430,SBD,Raw
3,59,Juniors,M,Kaiyrzhan Yeleussiz,1997,Kazakhstan,58.7,145,87.5,165,397.5,SBD,Raw
1,66,Juniors,M,Dmitriy Chebanov,1999,Kazakhstan,65.25,202.5,150,230,582.5,SBD,Raw
2,66,Juniors,M,Kamil Abdurashitov,2000,Kazakhstan,65.8,195,135,235,565,SBD,Raw
3,66,Juniors,M,Marvin Hwee Kiat Lim,1996,Singapore,64.6,197.5,110,220,527.5,SBD,Raw
4,66,Juniors,M,Vladimir Malyshev,2000,Kazakhstan,65.6,170,130,205,505,SBD,Raw
5,66,Juniors,M,Aleksandr Shvetsov,1996,Kazakhstan,65.2,177.5,115,210,502.5,SBD,Raw
6,66,Juniors,M,Saydullo Gaybullayev,1997,Uzbekistan,64.25,175,102.5,222.5,500,SBD,Raw
7,66,Juniors,M,Kenneth Lee King Chung,1999,Hong Kong,64.6,145,90,182.5,417.5,SBD,Raw
1,74,Juniors,M,Matthew Yap,1999,Singapore,72.15,245,155,275.5,675.5,SBD,Raw
2,74,Juniors,M,Kemron Shirinov,1997,Uzbekistan,72.9,220,155,245,620,SBD,Raw
3,74,Juniors,M,Kirill Starostin,2000,Kazakhstan,73.7,200,135,245,580,SBD,Raw
4,74,Juniors,M,Hayato Mitsunaga,1996,Japan,69.1,205,130,242.5,577.5,SBD,Raw
5,74,Juniors,M,Kuanyshbay Tulegenov,1998,Kazakhstan,72.35,190,150,160,500,SBD,Raw
1,83,Juniors,M,Danial Norfatris,1996,Singapore,81.7,245,142.5,305.5,693,SBD,Raw
2,83,Juniors,M,Artyom Shurupkin,2000,Kazakhstan,81.2,252.5,130,265,647.5,SBD,Raw
3,83,Juniors,M,Ali Talib,1996,Iraq,82.15,222.5,157.5,232.5,612.5,SBD,Raw
4,83,Juniors,M,Joseph Jijo,1996,India,80.15,207.5,127.5,235,570,SBD,Raw
5,83,Juniors,M,Fattih Yunusov,1998,Uzbekistan,81,205,132.5,232.5,570,SBD,Raw
6,83,Juniors,M,Kumar Harish,1997,India,82.1,210,117.5,242.5,570,SBD,Raw
7,83,Juniors,M,Daniyarbek Khabibullayev,1999,Kazakhstan,82.3,195,122.5,225,542.5,SBD,Raw
1,93,Juniors,M,Yen-Lin Chen,1997,Taiwan,91.7,255,147.5,297.5,700,SBD,Raw
2,93,Juniors,M,Ilya Kotenyov,1998,Kazakhstan,92.65,255,167.5,277.5,700,SBD,Raw
3,93,Juniors,M,Naoki Terunuma,1997,Japan,89,262.5,165,267.5,695,SBD,Raw
4,93,Juniors,M,Ghaith Al-Mousa,1997,Iraq,85.65,240,165,260,665,SBD,Raw
5,93,Juniors,M,Viktor Timorskiy,1996,Kazakhstan,90.75,217.5,140,277.5,635,SBD,Raw
6,93,Juniors,M,Tong Cao,1996,Hong Kong,91,260,150,220,630,SBD,Raw
7,93,Juniors,M,Mukhammad-Ali Mirzoev,1999,Tajikistan,92.2,182.5,172.5,230,585,SBD,Raw
8,93,Juniors,M,Ashton Liew,1996,Malaysia,91.25,180,105,290,575,SBD,Raw
9,93,Juniors,M,G S Brushothaman,1996,India,87.7,170,120,195,485,SBD,Raw
1,105,Juniors,M,Yi-Chiu Wu,2000,Taiwan,104.1,290,162.5,310.5,763,SBD,Raw
2,105,Juniors,M,Aniket Kamble,1996,India,104.4,270,177.5,280,727.5,SBD,Raw
3,105,Juniors,M,Ivan Gorevanov,1996,Kazakhstan,97.7,240,192.5,245,677.5,SBD,Raw
4,105,Juniors,M,Qing Quan Yeong,1996,Singapore,104.2,270,167.5,240,677.5,SBD,Raw
5,105,Juniors,M,Rashed Lootah,1997,UAE,97.2,225,125,305,655,SBD,Raw
6,105,Juniors,M,Dushyantha Jayasinghe Arachchige Uvindu,1996,Sri Lanka,96.6,220,137.5,250,607.5,SBD,Raw
7,105,Juniors,M,Jia-Wei Xu,1996,Taiwan,104.5,192.5,177.5,195,565,SBD,Raw
8,105,Juniors,M,Gegam Kamilov,2000,Uzbekistan,102.6,182.5,130,230,542.5,SBD,Raw
9,105,Juniors,M,Zhassurbek Akhmetov,1998,Kazakhstan,101.2,170,130,150,450,SBD,Raw
1,120,Juniors,M,Mohammed Adeelah,1997,Iraq,105.8,250,190,240,680,SBD,Raw
2,120,Juniors,M,Artem Gryazev,2000,Kazakhstan,110.2,220,182.5,210,612.5,SBD,Raw
3,120,Juniors,M,Zhalaliddin Akhmedov,1999,Kazakhstan,107.4,160,112.5,160,432.5,SBD,Raw
1,120+,Juniors,M,Vadim Sassin,2000,Kazakhstan,121.7,290,160,255,705,SBD,Raw
2,120+,Juniors,M,Ali Al-Asadi,1996,Iraq,131.3,265,145,272.5,682.5,SBD,Raw
3,120+,Juniors,M,Rakhymzhan Abdigaliyev,1997,Kazakhstan,122.6,222.5,145,235,602.5,SBD,Raw
4,120+,Juniors,M,Vikum Perera,1996,Sri Lanka,120.4,250,130,220,600,SBD,Raw
5,120+,Juniors,M,Raskar Mahesh,1996,India,142.3,230,150,215,595,SBD,Raw
6,120+,Juniors,M,Ahmed Alabbas,1997,Iraq,137,220,130,230,580,SBD,Raw
1,59,Masters 1,M,Zack Cheng Leong Toh,1973,Singapore,58.05,160,110,187.5,457.5,SBD,Raw
1,66,Masters 1,M,Kharvi Satisha,1976,India,64.75,170,100,215,485,SBD,Raw
2,66,Masters 1,M,Rajan E C,1971,India,62.7,140,110,170,420,SBD,Raw
1,74,Masters 1,M,Enkhbat Sanduijav,1974,Mongolia,73.45,205,125,245,575,SBD,Raw
2,74,Masters 1,M,Vadim Filimonenko,1974,Kazakhstan,73.85,192.5,122.5,210,525,SBD,Raw
3,74,Masters 1,M,Pao-Sheng Wang,,Taiwan,71.25,180,110,215,505,SBD,Raw
4,74,Masters 1,M,Oleg Pekuchshev,1977,Kazakhstan,72.85,185,122.5,175,482.5,SBD,Raw
1,83,Masters 1,M,Mohsen Shehni Feyz,1978,Iran,82.9,225,155,240,620,SBD,Raw
2,83,Masters 1,M,Victor Dak,1975,Kazakhstan,83,225,157.5,235,617.5,SBD,Raw
3,83,Masters 1,M,Davranbek Turakhanov,1974,Kazakhstan,79.85,212.5,130,227.5,570,SBD,Raw
1,93,Masters 1,M,Yevgeniy Nefedov,1972,Kazakhstan,92.15,235,165,270,670,SBD,Raw
2,93,Masters 1,M,Hiran Fernando,1975,Sri Lanka,91.8,252.5,137.5,230,620,SBD,Raw
3,93,Masters 1,M,Te-Feng Huang,,Taiwan,91.35,225,132.5,245,602.5,SBD,Raw
4,93,Masters 1,M,Sergey Fotiev,,Uzbekistan,93,227.5,120,227.5,575,SBD,Raw
5,93,Masters 1,M,Tiwari Bal Govind,1972,India,88.2,200,122.5,170,492.5,SBD,Raw
6,93,Masters 1,M,Faisal Alzaabi,1978,UAE,88.5,125,180,120,425,SBD,Raw
1,105,Masters 1,M,Dmitriy Mikhailov,1973,Kazakhstan,103.2,250,172.5,262.5,685,SBD,Raw
2,105,Masters 1,M,Ziad Mohamad,1972,Syria,101.8,150,122.5,170,442.5,SBD,Raw
1,120,Masters 1,M,Yuriy Zakharov,1972,Kazakhstan,115,277.5,162.5,285,725,SBD,Raw
2,120,Masters 1,M,Anatoliy Milyoshkin,1977,Kazakhstan,115.7,277.5,180,267.5,725,SBD,Raw
3,120,Masters 1,M,Maxim Gussik,1973,Kazakhstan,119.4,235,160,260,655,SBD,Raw
1,120+,Masters 1,M,Shaifulizzam B M R,1975,Singapore,128.9,235,132.5,265,632.5,SBD,Raw
2,120+,Masters 1,M,Haruhisa Shioya,1974,Japan,149.8,185,127.5,180,492.5,SBD,Raw
3,120+,Masters 1,M,Olim Sanakulov,1971,Uzbekistan,146.5,200,50,75,325,SBD,Raw
1,74,Masters 2,M,Bayarjargal Dolgorsuren,,Mongolia,68.55,125,100,172.5,397.5,SBD,Raw
1,83,Masters 2,M,Vladimir Shkirman,1964,Kazakhstan,81.5,210,120,167.5,497.5,SBD,Raw
2,83,Masters 2,M,Don Uttiya Mothilal Jayathilake,1960,Sri Lanka,80.05,100,80,140,320,SBD,Raw
1,93,Masters 2,M,Gennadiy Melnik,1967,Kazakhstan,91.85,227.5,140,275,642.5,SBD,Raw
2,93,Masters 2,M,Konstantin Khardin,1968,Uzbekistan,92,205,122.5,220,547.5,SBD,Raw
3,93,Masters 2,M,Renat Sagitov,1962,Kazakhstan,88.2,135,122.5,170,427.5,SBD,Raw
1,105,Masters 2,M,Alexsandr Chistov,1966,Kazakhstan,101.7,245,102.5,232.5,580,SBD,Raw
1,120,Masters 2,M,Kamran Butt Ather,,Pakistan,110.6,220,160,225,605,SBD,Raw
1,120+,Masters 2,M,Kassam Asem,1965,Syria,122.3,160,130,200,490,SBD,Raw
1,59,Masters 3,M,Chung-Yuen Tseng,1954,Taiwan,58.4,125,98,150,373,SBD,Raw
2,59,Masters 3,M,Perenlei Shagdar,1951,Mongolia,58.85,110,65,130,305,SBD,Raw
DQ,66,Masters 3,M,Zhaxylyk Abdrahmanov,1951,Kazakhstan,,,,,,SBD,Raw
1,83,Masters 3,M,Rustamhan Turdibayev,,Kazakhstan,80.6,140,97.5,202.5,440,SBD,Raw
2,83,Masters 3,M,Kaduyrkul Umbetalin,1958,Kazakhstan,81.6,142.5,105,165,412.5,SBD,Raw
1,93,Masters 3,M,Alexander Luzanov,1954,Uzbekistan,89,135,115,162.5,412.5,SBD,Raw
2,93,Masters 3,M,Yuriy Aparin,1954,Kazakhstan,91.4,90,100,162.5,352.5,SBD,Raw
1,105,Masters 3,M,Valeriy Stepanenko,1951,Kazakhstan,103.1,175,95,165,435,SBD,Raw
2,105,Masters 3,M,Tatsuya Mori,1958,Japan,94.3,160,80,165,405,SBD,Raw
1,59,Masters 4,M,Kung-Him Wong,1947,Hong Kong,54,116,85,135,336,SBD,Raw
1,93,Masters 4,M,Kairat Turlubekov,1948,Kazakhstan,91.4,155,100,175,430,SBD,Raw
1,105,Masters 4,M,Adzhibek Abakirov,1947,Kyrgyzstan,102.2,90,77.5,122.5,290,SBD,Raw
1,120+,Masters 4,M,Vladimir Babichev,1949,Kazakhstan,130.6,85,100,115,300,SBD,Raw
1,47,Open,F,Stephanie Mary Anak Ensol,1988,Malaysia,46.25,112.5,72.5,142.5,327.5,SBD,Raw
2,47,Open,F,Mei-Xiang Liu,1983,Taiwan,46.5,115,55,142.5,312.5,SBD,Raw
3,47,Open,F,Ji Hyun Choi,1983,South Korea,46,100,52.5,137.5,290,SBD,Raw
4,47,Open,F,Assiya Orazbekova,1987,Kazakhstan,46.4,95,75,115,285,SBD,Raw
5,47,Open,F,Kristina Tsoy,1991,Kazakhstan,46.65,97.5,60,120,277.5,SBD,Raw
6,47,Open,F,Vera Dil,1979,Kazakhstan,46.85,97.5,57.5,120,275,SBD,Raw
1,52,Open,F,Farhanna Farid,1992,Singapore,51.6,127.5,57.5,178,363,SBD,Raw
2,52,Open,F,Veronika Broner,1989,Kazakhstan,50.65,142.5,77.5,132.5,352.5,SBD,Raw
3,52,Open,F,Viktoriya Baidildina,1983,Kazakhstan,51.1,95,55,120,270,SBD,Raw
1,57,Open,F,Chulopas Chayada,1992,Thailand,55.2,110,65,160,335,SBD,Raw
2,57,Open,F,Olga Kurysheva,1967,Kazakhstan,56.65,110,72.5,147.5,330,SBD,Raw
3,57,Open,F,Alexandra Fyodorova,1993,Kazakhstan,55.95,120,72.5,122.5,315,SBD,Raw
DQ,57,Open,F,Solongo Munkhbat,1988,Mongolia,56.45,,45,122.5,,SBD,Raw
1,63,Open,F,Hsiu-Ching Hung,1995,Taiwan,57.75,137.5,80,192.5,410,SBD,Raw
2,63,Open,F,Yuliya Tomazova,1993,Kazakhstan,62.1,142.5,80,167.5,390,SBD,Raw
3,63,Open,F,Julia Porunova,1991,Kazakhstan,63,145,87.5,157.5,390,SBD,Raw
4,63,Open,F,Amartsengel Batkhishig,1989,Mongolia,62.7,132.5,70,170,372.5,SBD,Raw
5,63,Open,F,Svetlana Nazarenko,1965,Kazakhstan,62.1,132.5,85,150,367.5,SBD,Raw
1,72,Open,F,Veron Wang,1991,Singapore,71.95,173,67.5,170,410.5,SBD,Raw
2,72,Open,F,Hsiao-Li Hsu,1981,Taiwan,71.45,145,80,182.5,407.5,SBD,Raw
3,72,Open,F,Ekaterina Kryukova,1985,Kazakhstan,69.85,135,107.5,140,382.5,SBD,Raw
4,72,Open,F,P Rajimol,1994,India,64.2,115,65,150,330,SBD,Raw
1,84,Open,F,Zhadyra Bermukhametova,1986,Kazakhstan,81.45,150,115,155,420,SBD,Raw
2,84,Open,F,Mahriban Zhumaniyazova,1988,Turkmenistan,81.1,140,115,120,375,SBD,Raw
3,84,Open,F,Yunie Yang,1981,Singapore,82.1,122.5,67.5,172.5,362.5,SBD,Raw
4,84,Open,F,S. Nithya,1989,India,77.15,132.5,70,152.5,355,SBD,Raw
5,84,Open,F,Asem Nurbieva,1993,Kazakhstan,82.85,125,72.5,157.5,355,SBD,Raw
6,84,Open,F,P Libas,1984,India,80.35,152.5,67.5,132.5,352.5,SBD,Raw
1,84+,Open,F,Fang-Yun Su,1992,Taiwan,120.3,225,115,200,540,SBD,Raw
2,84+,Open,F,Xeniya Okatenko,1994,Kazakhstan,113.2,205,142.5,187.5,535,SBD,Raw
3,84+,Open,F,Raut Shrutika Abhay,1996,India,95.8,142.5,67.5,165,375,SBD,Raw
4,84+,Open,F,K. Tulasi,1986,India,99.25,120,80,145,345,SBD,Raw
1,43,Sub-Juniors,F,Karina Tychkova,2004,Kazakhstan,42.35,77.5,35,87.5,200,SBD,Raw
2,43,Sub-Juniors,F,Sevil Atakishieva,2005,Kazakhstan,42.9,80,37.5,82.5,200,SBD,Raw
1,47,Sub-Juniors,F,Elizaveta Krasnyk,2004,Kazakhstan,45,77.5,50,110,237.5,SBD,Raw
2,47,Sub-Juniors,F,Darya Namazova,2003,Kazakhstan,45.85,70,47.5,90,207.5,SBD,Raw
1,52,Sub-Juniors,F,Valeriya Kalinka,2004,Kazakhstan,51.4,100,55,127.5,282.5,SBD,Raw
2,52,Sub-Juniors,F,Amina Tyan,2001,Kazakhstan,51.65,102.5,67.5,112.5,282.5,SBD,Raw
3,52,Sub-Juniors,F,Shaji Shalu,2001,India,49.55,92.5,40,127.5,260,SBD,Raw
4,52,Sub-Juniors,F,Diana Nuriddinova,2001,Kazakhstan,52,82.5,52.5,85,220,SBD,Raw
1,57,Sub-Juniors,F,Regina Bille,2002,Kazakhstan,55.75,135,70,130,335,SBD,Raw
2,57,Sub-Juniors,F,Olesya Zhilyaeva,2004,Kazakhstan,56.05,105,60,112.5,277.5,SBD,Raw
3,57,Sub-Juniors,F,Boban Anjana,2001,India,54.8,80,50,125,255,SBD,Raw
4,57,Sub-Juniors,F,Varna Krishna,2002,India,56.35,100,37.5,100,237.5,SBD,Raw
1,63,Sub-Juniors,F,Anastasiya Butenko,2003,Kazakhstan,59.75,147.5,80,145,372.5,SBD,Raw
2,63,Sub-Juniors,F,Nagashree,2001,India,62.5,125,62.5,152.5,340,SBD,Raw
3,63,Sub-Juniors,F,Anastasya Sedova,2001,Kazakhstan,62.1,122.5,60,145,327.5,SBD,Raw
4,63,Sub-Juniors,F,Pei-Chen Wu,2004,Taiwan,62.35,115,57.5,132.5,305,SBD,Raw
1,72,Sub-Juniors,F,Diana Shatko,2002,Kazakhstan,68.7,160,90,160,410,SBD,Raw
2,72,Sub-Juniors,F,Nandana R,2001,India,71.45,145,80,140,365,SBD,Raw
3,72,Sub-Juniors,F,Vitalina Chichmarenko,2003,Kazakhstan,68.55,140,77.5,125,342.5,SBD,Raw
4,72,Sub-Juniors,F,Roy Rishika,2003,India,70.4,125,50,152.5,327.5,SBD,Raw
1,84,Sub-Juniors,F,Iroda Abdyrova,2001,Kazakhstan,80.35,130,87.5,162.5,380,SBD,Raw
2,84,Sub-Juniors,F,Mariya Bovkun,2001,Kazakhstan,72.2,125,80,142.5,347.5,SBD,Raw
3,84,Sub-Juniors,F,Hsin-Hsuan Peng,2004,Taiwan,81.5,122.5,67.5,142.5,332.5,SBD,Raw
4,84,Sub-Juniors,F,Augustine Aneesha,2001,India,74.2,110,50,125,285,SBD,Raw
1,84+,Sub-Juniors,F,Diana Malykhina,2003,Kazakhstan,116.8,195,95,172.5,462.5,SBD,Raw
2,84+,Sub-Juniors,F,Hsin-Ying Li,2005,Taiwan,95.1,160,70,160,390,SBD,Raw
3,84+,Sub-Juniors,F,Surendran Archana,2001,India,101.5,145,80,142.5,367.5,SBD,Raw
1,43,Juniors,F,Ya-Syuan Jheng,1999,Taiwan,42.25,96,47.5,127.5,271,SBD,Raw
2,43,Juniors,F,Cindy Claudia Witono,1996,Singapore,42.9,70,45,112.5,227.5,SBD,Raw
3,43,Juniors,F,K. Sree Lakshmi,1996,India,42.35,50,32.5,85,167.5,SBD,Raw
1,47,Juniors,F,Shirley Chu,1999,Singapore,46.85,110,52.5,117.5,280,SBD,Raw
2,47,Juniors,F,Rushaniya Kamzina,1999,Uzbekistan,47,105,60,115,280,SBD,Raw
3,47,Juniors,F,Hui-Chuan Huang,1996,Taiwan,46.1,82.5,55,122.5,260,SBD,Raw
4,47,Juniors,F,Benny Sona,1999,India,44.8,75,47.5,122.5,245,SBD,Raw
5,47,Juniors,F,J L Jenifa,2000,India,45.8,70,25,110,205,SBD,Raw
1,52,Juniors,F,Kathryn Chong Siew Li,1996,Malaysia,50.8,107.5,55,147.5,310,SBD,Raw
2,52,Juniors,F,Alyona Solopova,1998,Kazakhstan,51.6,115,67.5,117.5,300,SBD,Raw
3,52,Juniors,F,Aliya Kiskimbayeva,2000,Kazakhstan,51.9,102.5,77.5,100,280,SBD,Raw
1,57,Juniors,F,Anastasiya Zhurbina,1999,Kazakhstan,56.65,125,97.5,150,372.5,SBD,Raw
1,63,Juniors,F,Hayley Khwang,1997,Singapore,61.45,125,75,160,360,SBD,Raw
2,63,Juniors,F,Flo Napasab,1996,Thailand,61.75,112.5,67.5,147.5,327.5,SBD,Raw
3,63,Juniors,F,Pornchita Wongkhasum,1997,Thailand,61.75,122.5,60,142.5,325,SBD,Raw
1,72,Juniors,F,Asel Nurkenova,2000,Kazakhstan,69.85,147.5,107.5,162.5,417.5,SBD,Raw
2,72,Juniors,F,Parveen Shama,1997,India,66.95,120,77.5,160,357.5,SBD,Raw
3,72,Juniors,F,Kamila Kuspekova,1997,Kazakhstan,70.7,147.5,60,145,352.5,SBD,Raw
1,84,Juniors,F,Polina Kulakova,1998,Kazakhstan,80.2,145,105,155,405,SBD,Raw
2,84,Juniors,F,Shaji Vandhana,1997,India,83.15,152.5,70,145,367.5,SBD,Raw
1,84+,Juniors,F,Regina Meier,1999,Kazakhstan,113.5,195,117.5,170,482.5,SBD,Raw
2,84+,Juniors,F,Arshana V. V,1999,India,90.15,145,65,175,385,SBD,Raw
3,84+,Juniors,F,Darya Zhelezkova,1999,Kazakhstan,90.45,90,55,105,250,SBD,Raw
1,47,Masters 1,F,Hiromi Takeuchi,1974,Singapore,46.45,95,47.5,107.5,250,SBD,Raw
2,47,Masters 1,F,Natalya Tskhay,1975,Kazakhstan,46.35,85,55,100,240,SBD,Raw
3,47,Masters 1,F,Jain Sapna,1976,India,45.65,75,47.5,115,237.5,SBD,Raw
1,57,Masters 1,F,Neeta Mehta,1977,India,56.05,100,47.5,115,262.5,SBD,Raw
2,57,Masters 1,F,Aida Zhumanova,1970,Kazakhstan,55.6,70,52.5,77.5,200,SBD,Raw
1,63,Masters 1,F,C Sulochana,1975,India,61.95,105,47.5,132.5,285,SBD,Raw
2,63,Masters 1,F,Vanaja Nair,1972,UAE,61.05,45,40,55,140,SBD,Raw
1,72,Masters 1,F,Mishra Renjita,1972,India,72,115,65,140,320,SBD,Raw
2,72,Masters 1,F,K.s Deepa,1978,India,69.25,95,50,120,265,SBD,Raw
1,84,Masters 1,F,Borkar Aruna,1976,India,83.3,75,32.5,95,202.5,SBD,Raw
1,84+,Masters 1,F,Alla Shtrosherer,1970,Kazakhstan,118.2,127.5,88,130,345.5,SBD,Raw
1,57,Masters 2,F,Raghunath Vinutha,1968,India,55.3,120,55,125,300,SBD,Raw
1,63,Masters 2,F,Saldanha Vilma,,India,60.6,97.5,47.5,125,270,SBD,Raw
1,72,Masters 2,F,Wing-Yuk Ip,1961,Hong Kong,63.8,72.5,55,95,222.5,SBD,Raw
2,72,Masters 2,F,N K Easwary,1966,India,63.45,65,30,90,185,SBD,Raw
1,84,Masters 2,F,Venkatachalam Kala,1963,India,76.15,110,56,125,291,SBD,Raw
1,63,Masters 3,F,Parvez Aley,,India,60.95,90,62.5,120,272.5,SBD,Raw
1,72,Masters 3,F,Bharde Purna,1958,India,66.65,62.5,40,90,192.5,SBD,Raw
