Place,Name,BirthDate,Sex,BirthYear,Age,Country,State,Equipment,Division,BodyweightKg,WeightClassKg,Squat1Kg,Squat2Kg,Squat3Kg,Best3SquatKg,Bench1Kg,Bench2Kg,Bench3Kg,Best3BenchKg,Deadlift1Kg,Deadlift2Kg,Deadlift3Kg,Best3DeadliftKg,TotalKg,Event
1,Regan Dwenger,,F,2001,23,USA,IN,Raw,FR-O,59.70,63,100.0,107.50,115.00,115.0,50.00,55.00,57.50,57.50,120.00,127.50,-132.50,127.50,300,SBD
1,Lilia Bingham,,F,2002,22,USA,MI,Raw,FR-O,68.60,69,160.0,167.50,-170.00,167.5,90.00,97.50,-102.50,97.50,167.50,180.00,-185.00,180.00,445,SBD
2,Nikki Venne,,F,1988,36,USA,IN,Raw,FR-O,68.90,69,115.0,122.50,130.00,130.0,60.00,65.00,-67.50,65.00,132.50,145.00,152.50,152.50,348,SBD
1,Cynthia Browning,,F,1970,54,USA,IN,Raw,FR-O,69.20,76,120.0,127.50,135.00,135.0,92.50,-97.50,97.50,97.50,167.50,180.00,187.50,187.50,420,SBD
G,Jessica Buettner,,F,1995,30,USA,IN,Raw,FR-G,81.20,84,192.5,205.00,215.00,215.0,95.00,100.00,-102.50,100.00,215.00,230.00,240.00,240.00,555,SBD
1,Kathryn Tranum,,F,2003,21,USA,IN,Raw,FR-O,121.00,84+,190.0,205.00,215.00,215.0,95.00,102.50,107.50,107.50,177.50,-190.00,-190.00,177.50,500,SBD
2,Elizabeth Markee,,F,1998,27,USA,IN,Raw,FR-O,86.80,84+,-105.0,110.00,117.50,117.5,67.50,72.50,80.00,80.00,147.50,160.00,167.50,167.50,365,SBD
3,Naomi Mills,,F,2003,21,USA,IN,Raw,FR-O,86.50,84+,67.5,-80.00,85.00,85.0,35.00,40.00,45.00,45.00,75.00,85.00,95.00,95.00,225,SBD
1,Joel Martin #1,,M,1995,29,USA,IN,Single-ply,M-O,102.00,105,300.0,-310.00,-310.00,300.0,160.00,-167.50,-167.50,160.00,250.00,270.00,-292.50,270.00,730,SBD
1,Khalil Johnson #1,,M,2002,22,USA,IN,Raw,MR-O,57.80,59,157.5,162.50,167.50,167.5,87.50,92.50,97.50,97.50,170.00,185.00,-200.00,185.00,450,SBD
2,Ben Baker,,M,2003,21,USA,IN,Raw,MR-O,54.90,59,-52.5,65.00,70.00,70.0,42.50,50.00,-60.00,50.00,75.00,90.00,102.50,102.50,223,SBD
1,Aiden Garner,,M,2008,16,USA,IN,Raw,MR-O,73.20,74,175.0,185.00,195.00,195.0,110.00,115.00,122.50,122.50,170.00,180.00,182.50,182.50,500,SBD
2,Ben Christner,,M,2007,17,USA,IN,Raw,MR-O,73.10,74,155.0,167.50,182.50,182.5,105.00,112.50,115.00,115.00,170.00,185.00,-202.50,185.00,483,SBD
1,Aiden Collins #2,,M,2005,20,USA,IN,Raw,MR-O,76.80,83,190.0,200.00,205.00,205.0,92.50,95.00,100.00,100.00,200.00,215.00,227.50,227.50,533,SBD
2,Shiv Chuganee,,M,2005,20,USA,IN,Raw,MR-O,82.30,83,117.5,127.50,135.00,135.0,-115.00,115.00,127.50,127.50,200.00,-212.50,-225.00,200.00,463,SBD
3,Matthew Keevers,,M,2006,19,USA,IN,Raw,MR-O,81.10,83,145.0,155.00,165.00,165.0,87.50,90.00,92.50,92.50,142.50,155.00,165.00,165.00,423,SBD
1,Ronald Toney,,M,1998,26,USA,IN,Raw,MR-O,91.00,93,205.0,220.00,-235.00,220.0,140.00,147.50,157.50,157.50,270.00,-290.00,290.00,290.00,668,SBD
2,Joshua Carter #4,,M,2004,20,USA,IN,Raw,MR-O,88.80,93,210.0,227.50,240.00,240.0,130.00,-137.50,137.50,137.50,220.00,235.00,247.50,247.50,625,SBD
3,Riley Burton,,M,2004,20,USA,IN,Raw,MR-O,92.70,93,197.5,207.50,220.00,220.0,142.50,150.00,-155.00,150.00,212.50,225.00,-235.00,225.00,595,SBD
4,Kyle Parry,,M,1997,27,USA,IN,Raw,MR-O,90.40,93,180.0,190.00,197.50,197.5,115.00,125.00,132.50,132.50,177.50,195.00,207.50,207.50,538,SBD
5,Rick Fowler,,M,1970,54,USA,IL,Raw,MR-O,92.70,93,172.5,185.00,190.00,190.0,122.50,127.50,-130.00,127.50,185.00,202.50,220.00,220.00,538,SBD
6,Theodore Boulukos,,M,2008,17,USA,IN,Raw,MR-O,89.50,93,162.5,172.50,180.00,180.0,92.50,97.50,-100.00,97.50,195.00,205.00,215.00,215.00,493,SBD
7,Stephen Simpson #2,,M,2001,23,USA,IN,Raw,MR-O,90.50,93,-127.5,127.50,-130.00,127.5,90.00,-95.00,95.00,95.00,95.00,102.50,-107.50,102.50,325,SBD
1,Andrew Kruslemsky,,M,2001,23,USA,IN,Raw,MR-O,103.80,105,250.0,265.00,275.00,275.0,157.50,170.00,-175.00,170.00,285.00,310.00,327.50,327.50,773,SBD
2,Matthew Kruszewski,,M,1997,27,USA,IN,Raw,MR-O,95.60,105,227.5,242.50,-255.00,242.5,132.50,137.50,142.50,142.50,270.00,287.50,305.00,305.00,690,SBD
3,Clayton Coll,,M,2000,24,USA,IN,Raw,MR-O,102.90,105,220.0,-235.00,-235.00,220.0,155.00,162.50,-167.50,162.50,270.00,280.00,-290.00,280.00,663,SBD
4,Christopher Arthur,,M,1992,32,USA,IN,Raw,MR-O,103.20,105,145.0,155.00,165.00,165.0,80.00,87.50,92.50,92.50,165.00,172.50,182.50,182.50,440,SBD
1,Anthony Tintari,,M,1977,47,USA,IN,Raw,MR-O,113.00,120,127.5,137.50,145.00,145.0,127.50,-132.50,-132.50,127.50,160.00,170.00,177.50,177.50,450,SBD
1,Corbin Long,,M,1998,27,USA,IN,Raw,MR-O,132.70,120+,-270.0,285.00,300.00,300.0,150.00,160.00,167.50,167.50,250.00,270.00,285.00,285.00,753,SBD
2,Tanner Clark,,M,1989,35,USA,IN,Raw,MR-O,127.00,120+,222.5,232.50,242.50,242.5,165.00,175.00,-177.50,175.00,210.00,222.50,232.50,232.50,650,SBD
3,Evan Smith #6,,M,2010,14,USA,IN,Raw,MR-O,121.60,120+,145.0,157.50,167.50,167.5,115.00,122.50,-125.00,122.50,167.50,177.50,192.50,192.50,483,SBD
1,Roman Venne,,M,2016,8,USA,IN,Raw,MR-Y,,,22.0,25.00,27.00,27.0,11.00,13.50,-16.00,13.50,25.00,28.00,30.00,30.00,71,SBD
