Division,WeightClassKg,Place,Name,Team,BodyweightKg,Best3SquatKg,Best3BenchKg,Best3DeadliftKg,TotalKg,Equipment,Event,Sex,BirthDate
Girls,44.23,1,Alexia Alanis,Brownsville Veterans Memorial,44.09,122.47,61.23,129.27,312.98,Unlimited,SBD,F,
Girls,44.23,2,June Acevedo,Donna,43.82,99.79,52.16,102.06,254.01,Unlimited,SBD,F,
Girls,44.23,3,Viviana Munoz,San Benito,43.45,99.79,40.82,92.99,233.6,Unlimited,SBD,F,
Girls,44.23,4,Arlette Rangel,Brownsville Rivera,38.28,58.97,24.95,70.31,154.22,Unlimited,SBD,F,
Girls,47.85,1,Victoria Juarez,Brownsville Hanna,47.81,136.08,61.23,136.08,333.39,Unlimited,SBD,F,
Girls,47.85,2,Miranda Vidal,Brownsville Veterans Memorial,47.81,117.93,56.7,124.74,299.37,Unlimited,SBD,F,
Girls,47.85,3,Alexa Chavez,Brownsville Pace,47.45,106.59,45.36,120.2,272.16,Unlimited,SBD,F,
Girls,47.85,4,Alyssa Baker,San Benito,46.99,104.33,45.36,120.2,269.89,Unlimited,SBD,F,
Girls,47.85,5,Michelle Castillo,Brownsville Pace,46.18,90.72,49.9,88.45,229.06,Unlimited,SBD,F,
Girls,47.85,6,Evelynn Cortez,Donna North,47.26,86.18,34.02,95.25,215.46,Unlimited,SBD,F,
Girls,47.85,DQ,Garcia Victoria,Harlingen,45.81,61.23,,,,Unlimited,SBD,F,
Girls,51.94,1,Kiara Cepeda,San Benito,51.53,129.27,65.77,115.67,310.71,Unlimited,SBD,F,
Girls,51.94,2,Jennifer Montes,Lyford,51.89,108.86,54.43,120.2,283.5,Unlimited,SBD,F,
Girls,51.94,3,Ayva Trevino,Harlingen South,49.35,104.33,54.43,111.13,269.89,Unlimited,SBD,F,
Girls,51.94,4,Zaira Garcia,Los Fresnos,51.17,106.59,54.43,97.52,258.55,Unlimited,SBD,F,
Girls,51.94,5,Avery Greenhill,Lyford,51.71,83.91,38.56,86.18,208.65,Unlimited,SBD,F,
Girls,51.94,6,Alma Almaguer,Lyford,49.9,79.38,40.82,86.18,206.38,Unlimited,SBD,F,
Girls,51.94,7,Valerie Ramirez,Donna North,49.26,72.57,34.02,95.25,201.85,Unlimited,SBD,F,
Girls,51.94,8,Eleana Villanueva,Harlingen,48.53,61.23,29.48,83.91,174.63,Unlimited,SBD,F,
Girls,51.94,DQ,Nadia Maldonado,Harlingen South,51.71,,,,,Unlimited,SBD,F,
Girls,56.02,1,Ollie Valdez,Brownsville Veterans Memorial,54.61,163.29,77.11,147.42,387.82,Unlimited,SBD,F,
Girls,56.02,2,Mia Ramirez,Brownsville Rivera,55.34,136.08,65.77,138.35,340.19,Unlimited,SBD,F,
Girls,56.02,3,Noemi Perez,Brownsville Veterans Memorial,55.43,136.08,70.31,129.27,335.66,Unlimited,SBD,F,
Girls,56.02,4,Kaleigh Silva,Lyford,55.16,133.81,70.31,129.27,333.39,Unlimited,SBD,F,
Girls,56.02,5,Belinda Arizpe,San Benito,54.98,127.01,56.7,140.61,324.32,Unlimited,SBD,F,
Girls,56.02,6,San Juana Rodriguez,San Benito,55.88,131.54,54.43,122.47,308.44,Unlimited,SBD,F,
Girls,56.02,7,Denise Torres,Donna,55.97,97.52,58.97,111.13,267.62,Unlimited,SBD,F,
Girls,56.02,8,Alexis Palafox,Los Fresnos,55.52,106.59,43.09,115.67,265.35,Unlimited,SBD,F,
Girls,56.02,9,Natasha Lara,San Benito,54.34,111.13,52.16,97.52,260.82,Unlimited,SBD,F,
Girls,56.02,10,Hannia Garcia,Los Fresnos,55.52,106.59,54.43,97.52,258.55,Unlimited,SBD,F,
Girls,56.02,DQ,Sofía Rodríguez,Los Fresnos,54.61,111.13,,,,Unlimited,SBD,F,
Girls,56.02,DQ,Alanis Lozano,Donna,55.79,,,,,Unlimited,SBD,F,
Girls,60.1,1,Leandra Machuca,San Benito,58.69,165.56,74.84,145.15,385.55,Unlimited,SBD,F,
Girls,60.1,2,Alondra Gonzalez,Brownsville Veterans Memorial,58.06,140.61,86.18,151.95,378.75,Unlimited,SBD,F,
Girls,60.1,3,Rhonda Valdez,Donna,60.06,151.95,74.84,133.81,360.61,Unlimited,SBD,F,
Girls,60.1,4,Jocelyn Saenz,Donna,59.87,140.61,52.16,140.61,333.39,Unlimited,SBD,F,
Girls,60.1,5,Hayley Segura,Brownsville Hanna,59.69,127.01,79.38,111.13,317.51,Unlimited,SBD,F,
Girls,60.1,6,Haiden Perales,Harlingen,59.87,127.01,61.23,127.01,315.25,Unlimited,SBD,F,
Girls,60.1,7,Nancy Correa,Lyford,56.7,122.47,65.77,124.74,312.98,Unlimited,SBD,F,
Girls,60.1,8,Alyssa Moody,Brownsville Veterans Memorial,58.51,117.93,65.77,115.67,299.37,Unlimited,SBD,F,
Girls,60.1,9,Paulina Araiza,Brownsville Riverview IDEA,58.06,127.01,49.9,115.67,292.57,Unlimited,SBD,F,
Girls,60.1,10,Anna Gonzalez,Harlingen South,57.79,117.93,52.16,115.67,285.76,Unlimited,SBD,F,
Girls,60.1,11,Vivid Villareal,Donna,57.79,122.47,56.7,104.33,283.5,Unlimited,SBD,F,
Girls,60.1,12,Allison Oviedo,Los Fresnos,59.33,113.4,54.43,104.33,272.16,Unlimited,SBD,F,
Girls,60.1,13,Leyla Medrano,Los Fresnos,57.52,104.33,54.43,108.86,267.62,Unlimited,SBD,F,
Girls,60.1,14,Jordin Garza,San Benito,57.7,111.13,45.36,111.13,267.62,Unlimited,SBD,F,
Girls,60.1,15,Anayeli Rodriguez,Brownsville Rivera,58.33,113.4,45.36,104.33,263.08,Unlimited,SBD,F,
Girls,60.1,16,Iliana Garza,Lyford,57.15,95.25,40.82,102.06,238.14,Unlimited,SBD,F,
Girls,60.1,17,Lilian Barrera,Brownsville Pace,57.88,90.72,47.63,92.99,231.33,Unlimited,SBD,F,
Girls,60.1,18,Elissa Cortez,Donna North,57.52,79.38,43.09,95.25,217.72,Unlimited,SBD,F,
Girls,60.1,DQ,Alina Gonzalez,Brownsville Veterans Memorial,59.06,154.22,68.04,,,Unlimited,SBD,F,
Girls,60.1,DQ,Janissa Rivera,Harlingen South,58.33,,,,,Unlimited,SBD,F,
Girls,67.36,1,Allyson Campos,Harlingen,64.68,174.63,83.91,127.01,385.55,Unlimited,SBD,F,
Girls,67.36,2,Juliana Valdez,Harlingen,66.95,176.9,65.77,131.54,374.21,Unlimited,SBD,F,
Girls,67.36,3,Gabrielle Vega,Harlingen South,66.04,156.49,72.57,131.54,360.61,Unlimited,SBD,F,
Girls,67.36,4,Daniela Herman,San Benito,63.78,149.69,68.04,133.81,351.53,Unlimited,SBD,F,
Girls,67.36,5,Natalie Sanchez,Lyford,67.22,138.35,74.84,131.54,344.73,Unlimited,SBD,F,
Girls,67.36,6,Zahylin Hernandez,Donna,64.86,131.54,79.38,124.74,335.66,Unlimited,SBD,F,
Girls,67.36,7,Hazel Ibarra,Brownsville Veterans Memorial,64.23,127.01,70.31,136.08,333.39,Unlimited,SBD,F,
Girls,67.36,8,Deenah Brown,Brownsville Rivera,66.22,133.81,63.5,124.74,322.05,Unlimited,SBD,F,
Girls,67.36,9,Kassandra Olvera,Brownsville Veterans Memorial,67.31,131.54,65.77,124.74,322.05,Unlimited,SBD,F,
Girls,67.36,10,Stephany Ramirez,Los Fresnos,63.78,142.88,56.7,120.2,319.78,Unlimited,SBD,F,
Girls,67.36,11,Nancy Conde,Brownsville Hanna,66.68,120.2,70.31,115.67,306.17,Unlimited,SBD,F,
Girls,67.36,12,Emily Moreno,San Benito,64.41,111.13,56.7,106.59,274.42,Unlimited,SBD,F,
Girls,67.36,13,Celeste Casas,Donna North,61.42,104.33,45.36,120.2,269.89,Unlimited,SBD,F,
Girls,67.36,14,Cantu Aubrey,Harlingen,62.69,106.59,47.63,102.06,256.28,Unlimited,SBD,F,
Girls,67.36,15,Ashley DeLeon,Donna North,65.23,97.52,45.36,111.13,254.01,Unlimited,SBD,F,
Girls,67.36,16,Jane De Leon,Brownsville Hanna,66.41,95.25,49.9,86.18,231.33,Unlimited,SBD,F,
Girls,67.36,17,Ashley Ibarra,Donna North,62.05,106.59,31.75,90.72,229.06,Unlimited,SBD,F,
Girls,67.36,DQ,Lucinda Estrada,Harlingen,63.5,136.08,,,,Unlimited,SBD,F,
Girls,67.36,DQ,Summer Chavez,Lyford,66.5,,,,,Unlimited,SBD,F,
Girls,75.07,1,Ashley Cruz,Harlingen,72.3,172.37,90.72,161.03,424.11,Unlimited,SBD,F,
Girls,75.07,2,Priscilla Mendoza,Los Fresnos,72.21,142.88,88.45,156.49,387.82,Unlimited,SBD,F,
Girls,75.07,3,Osiris Galvan,Brownsville Veterans Memorial,67.49,163.29,63.5,151.95,378.75,Unlimited,SBD,F,
Girls,75.07,4,Mackenzie Tamez,Harlingen South,73.84,158.76,61.23,156.49,376.48,Unlimited,SBD,F,
Girls,75.07,5,Caylie Prosek,Harlingen,68.58,142.88,72.57,129.27,344.73,Unlimited,SBD,F,
Girls,75.07,6,Gabriela Portales,Los Fresnos,71.58,129.27,61.23,122.47,312.98,Unlimited,SBD,F,
Girls,75.07,7,Daniela Balboa,Brownsville Pace,71.94,127.01,65.77,106.59,299.37,Unlimited,SBD,F,
Girls,75.07,8,Evelyn Gonzalez,Brownsville Rivera,74.48,117.93,49.9,104.33,272.16,Unlimited,SBD,F,
Girls,75.07,9,Miley Campos,Donna,70.94,115.67,52.16,102.06,269.89,Unlimited,SBD,F,
Girls,75.07,10,Jasmin Tamez,Lyford,68.76,97.52,54.43,108.86,260.82,Unlimited,SBD,F,
Girls,75.07,11,Sofia Chavez,Lyford,69.76,95.25,54.43,102.06,251.74,Unlimited,SBD,F,
Girls,75.07,DQ,Alexy Martinez,Brownsville Rivera,72.21,,,,,Unlimited,SBD,F,
Girls,82.33,1,Raquel Uvalle,Harlingen,80.56,192.78,90.72,163.29,446.79,Unlimited,SBD,F,
Girls,82.33,2,Elsa Raya,Brownsville Hanna,82.01,151.95,127.01,154.22,433.18,Unlimited,SBD,F,
Girls,82.33,3,Martha Martinez,Brownsville Pace,78.93,174.63,72.57,149.69,396.89,Unlimited,SBD,F,
Girls,82.33,4,Mia Munoz,San Benito,79.11,154.22,77.11,151.95,383.29,Unlimited,SBD,F,
Girls,82.33,5,Deyanara Guerra,Brownsville Pace,78.56,156.49,72.57,142.88,371.95,Unlimited,SBD,F,
Girls,82.33,6,Heather May,Lyford,80.56,151.95,74.84,142.88,369.68,Unlimited,SBD,F,
Girls,82.33,7,Kiara Villanueva,Los Fresnos,80.74,149.69,74.84,136.08,360.61,Unlimited,SBD,F,
Girls,82.33,8,Lauren Izaguirre,Harlingen South,76.66,151.95,61.23,129.27,342.46,Unlimited,SBD,F,
Girls,82.33,9,Chasadie Rodriguez,Harlingen,81.1,136.08,74.84,124.74,335.66,Unlimited,SBD,F,
Girls,82.33,10,Demi Lopez,Harlingen South,76.48,149.69,63.5,113.4,326.59,Unlimited,SBD,F,
Girls,82.33,11,Karyme Arguelles,Brownsville Hanna,81.83,106.59,77.11,108.86,292.57,Unlimited,SBD,F,
Girls,82.33,12,Claudia Gauna,Harlingen South,78.47,122.47,47.63,120.2,290.3,Unlimited,SBD,F,
Girls,82.33,13,Angelina Mata,Brownsville Pace,79.2,111.13,54.43,124.74,290.3,Unlimited,SBD,F,
Girls,82.33,14,Ava Rodriguez,Lyford,81.01,108.86,43.09,124.74,276.69,Unlimited,SBD,F,
Girls,82.33,15,Gabriela Gonzalez,Brownsville Pace,77.75,113.4,54.43,104.33,272.16,Unlimited,SBD,F,
Girls,82.33,16,Dariela Blanco,Donna North,76.75,56.7,34.02,145.15,235.87,Unlimited,SBD,F,
Girls,82.33,17,Alessandra Solis,Brownsville Veterans Memorial,77.47,74.84,36.29,88.45,199.58,Unlimited,SBD,F,
Girls,90.04,1,Arlene De Leon,Donna,87.63,156.49,70.31,127.01,353.8,Unlimited,SBD,F,
Girls,90.04,2,Stephanie Muniz,San Benito,86.09,124.74,68.04,113.4,306.17,Unlimited,SBD,F,
Girls,90.04,3,Kiara Flores,Donna North,85.64,127.01,56.7,117.93,301.64,Unlimited,SBD,F,
Girls,90.04,4,Gianna Trevino,Los Fresnos,84.55,115.67,54.43,113.4,283.5,Unlimited,SBD,F,
Girls,90.04,5,Alexis Dickinson,Brownsville Pace,83.82,92.99,45.36,102.06,240.4,Unlimited,SBD,F,
Girls,90.04,DQ,Yakelyn Candelario,Donna North,85.46,131.54,,,,Unlimited,SBD,F,
Girls,100.02,1,Karelly Jimenez,Brownsville Hanna,95.98,172.37,106.59,158.76,437.72,Unlimited,SBD,F,
Girls,100.02,2,Yisel Salas,Brownsville Pace,99.61,183.7,102.06,149.69,435.45,Unlimited,SBD,F,
Girls,100.02,3,Josie Rodriguez,Los Fresnos,97.25,156.49,74.84,138.35,369.68,Unlimited,SBD,F,
Girls,100.02,4,Ariana Memik,Harlingen,93.8,142.88,45.36,142.88,331.12,Unlimited,SBD,F,
Girls,100.02,DQ,Ashley Salinas,Brownsville Rivera,95.35,133.81,,,,Unlimited,SBD,F,
Girls,100.02,DQ,Andrea De La Rosa,Brownsville Hanna,95.62,142.88,,,,Unlimited,SBD,F,
Girls,117.71,1,Kayra Guerrero,Donna,112.4,199.58,111.13,161.03,471.74,Unlimited,SBD,F,
Girls,117.71,2,Alyssa Cantu,Brownsville Pace,107.14,190.51,92.99,158.76,442.25,Unlimited,SBD,F,
Girls,117.71,3,Genesis Coss,Donna North,106.23,181.44,68.04,161.03,410.5,Unlimited,SBD,F,
Girls,117.71,4,Madison Campos,Harlingen South,114.67,158.76,74.84,129.27,362.87,Unlimited,SBD,F,
Girls,117.71,5,Alondra Cortez,Harlingen South,100.24,136.08,63.5,120.2,319.78,Unlimited,SBD,F,
Girls,117.71,6,Angelica Gonzalez,Donna North,103.6,131.54,63.5,122.47,317.51,Unlimited,SBD,F,
Girls,117.71,7,Miranda Rodriguez,Brownsville Veterans Memorial,115.58,74.84,38.56,102.06,215.46,Unlimited,SBD,F,
Girls,117.71,DQ,Mayela Marroquin,Lyford,102.24,97.52,,,,Unlimited,SBD,F,
Girls,117.71,DQ,Melanie Olvera,Donna North,117.48,,,,,Unlimited,SBD,F,
Girls,117.71+,1,Mia Ramos,Brownsville Riverview IDEA,139.71,188.24,102.06,167.83,458.13,Unlimited,SBD,F,
Girls,,NS,Yesenia Rodriguez,Brownsville Rivera,,,,,,Unlimited,SBD,F,
Girls,,NS,Natalia Estrada,Brownsville Rivera,,,,,,Unlimited,SBD,F,
Girls,,NS,Angelina Yanez,Donna,,,,,,Unlimited,SBD,F,
Girls,,NS,Tricia Leyva,Donna,,,,,,Unlimited,SBD,F,
Girls,,NS,Samantha Zuniga,Brownsville Pace,,,,,,Unlimited,SBD,F,
