Division,WeightClassKg,Place,Name,Team,BodyweightKg,Best3SquatKg,Best3BenchKg,Best3DeadliftKg,TotalKg,Equipment,Event,Sex,BirthDate
Boys,51.71,1,Colton Harvell,Fairfield,46.63,97.52,47.63,124.74,269.89,Single-ply,SBD,M,
Boys,51.71,DQ,Arthur Arita,Tyler Chapel Hill,45.18,54.43,,,,Single-ply,SBD,M,
Boys,55.79,1,James Hicks,Waxahachie Life,54.7,145.15,70.31,149.69,365.14,Single-ply,SBD,M,
Boys,55.79,2,Elijah Burrow,Gilmer,55.79,108.86,79.38,117.93,306.17,Single-ply,SBD,M,
Boys,55.79,3,James Benavides,Kemp,55.79,113.4,65.77,95.25,274.42,Single-ply,SBD,M,
Boys,55.79,4,Augustine Rodriguez,Athens,52.16,90.72,47.63,117.93,256.28,Single-ply,SBD,M,
Boys,55.79,DQ,Carter Sullivan,Kemp,53.07,,,,,Single-ply,SBD,M,
Boys,59.87,1,Croix McBean,Fairfield,56.7,136.08,74.84,158.76,369.68,Single-ply,SBD,M,
Boys,59.87,2,Curtis Griffith,Canton,58.33,147.42,68.04,145.15,360.61,Single-ply,SBD,M,
Boys,59.87,3,Sam Briggs,Athens,59.6,102.06,86.18,117.93,306.17,Single-ply,SBD,M,
Boys,67.13,1,Freddy Ponce,Gilmer,62.96,158.76,113.4,176.9,449.06,Single-ply,SBD,M,
Boys,67.13,2,Demarian Sanders,Tyler Chapel Hill,63.32,142.88,106.59,199.58,449.06,Single-ply,SBD,M,
Boys,67.13,3,Cross Elizardo,Argyle,64.14,185.97,77.11,174.63,437.72,Single-ply,SBD,M,
Boys,67.13,4,Lino Diaz,Gilmer,61.96,149.69,90.72,163.29,403.7,Single-ply,SBD,M,
Boys,67.13,5,Justus Savage,Fairfield,64.95,136.08,88.45,145.15,369.68,Single-ply,SBD,M,
Boys,67.13,6,Cameron Griffith,Canton,63.41,133.81,77.11,142.88,353.8,Single-ply,SBD,M,
Boys,67.13,7,Cashis Lee-Brown,Athens,61.05,127.01,83.91,138.35,349.27,Single-ply,SBD,M,
Boys,67.13,DQ,Keegan Angell,Canton,64.59,,,,,Single-ply,SBD,M,
Boys,67.13,DQ,Avery Weaver,Gilmer,66.5,165.56,97.52,,,Single-ply,SBD,M,
Boys,67.13,DQ,Alex Gonzalez #3,Mabank,66.95,185.97,99.79,,,Single-ply,SBD,M,
Boys,74.84,1,Mark Castle,Argyle,73.75,199.58,86.18,235.87,521.63,Single-ply,SBD,M,
Boys,74.84,2,Keyton Bohannon,Mabank,74.75,188.24,120.2,195.04,503.49,Single-ply,SBD,M,
Boys,74.84,3,Jaborian Cook,Tyler Chapel Hill,70.08,192.78,120.2,188.24,501.22,Single-ply,SBD,M,
Boys,74.84,4,Michael Elliot,Malakoff,74.39,147.42,90.72,158.76,396.89,Single-ply,SBD,M,
Boys,74.84,5,Daniel Castañeda #2,Athens,68.86,147.42,81.65,163.29,392.36,Single-ply,SBD,M,
Boys,74.84,6,Jeremy Elliot,Kaufman,71.21,129.27,77.11,181.44,387.82,Single-ply,SBD,M,
Boys,74.84,7,Michael DeMoss,Kerens,74.3,142.88,88.45,149.69,381.02,Single-ply,SBD,M,
Boys,74.84,8,Noah Tatum,Athens,73.66,138.35,95.25,136.08,369.68,Single-ply,SBD,M,
Boys,74.84,9,Brock Meeks,Canton,69.31,149.69,58.97,138.35,347,Single-ply,SBD,M,
Boys,74.84,DQ,Luke HolyField,Gilmer,69.94,170.1,,170.1,,Single-ply,SBD,M,
Boys,82.1,1,Jose Villanueva,Kemp,78.38,265.35,149.69,201.85,616.89,Single-ply,SBD,M,
Boys,82.1,2,Aaron Quezada,Kemp,81.83,265.35,149.69,199.58,614.62,Single-ply,SBD,M,
Boys,82.1,3,Keegan Sprouse,Gilmer,80.1,192.78,133.81,226.8,553.38,Single-ply,SBD,M,
Boys,82.1,4,Hayden Palmer,Kerens,81.65,210.92,140.61,201.85,553.38,Single-ply,SBD,M,
Boys,82.1,5,Christian Mack,Waxahachie Life,80.29,201.85,129.27,201.85,532.97,Single-ply,SBD,M,
Boys,82.1,6,Evan Chavers,Fairfield,81.83,204.12,129.27,183.7,517.1,Single-ply,SBD,M,
Boys,82.1,7,Brayden May,Kerens,75.39,190.51,142.88,181.44,514.83,Single-ply,SBD,M,
Boys,82.1,8,Josh Rios,Mabank,80.38,190.51,117.93,185.97,494.42,Single-ply,SBD,M,
Boys,82.1,9,Christian Morales,Mabank,78.15,181.44,138.35,161.03,480.81,Single-ply,SBD,M,
Boys,82.1,10,Claude Kelly,Waxahachie Life,76.48,170.1,102.06,176.9,449.06,Single-ply,SBD,M,
Boys,82.1,11,Jayden Reed,Kaufman,76.48,147.42,111.13,181.44,439.98,Single-ply,SBD,M,
Boys,82.1,12,Collin Haley,Kemp,80.65,165.56,97.52,165.56,428.64,Single-ply,SBD,M,
Boys,82.1,13,John Hurt,Argyle,80.38,161.03,83.91,179.17,424.11,Single-ply,SBD,M,
Boys,82.1,14,Eric Esabedo,Fairfield,77.02,167.83,79.38,161.03,408.23,Single-ply,SBD,M,
Boys,82.1,15,Angelo Magallon,Canton,75.48,122.47,68.04,129.27,319.78,Single-ply,SBD,M,
Boys,82.1,DQ,Nik Moody,Tyler Chapel Hill,78.74,199.58,129.27,,,Single-ply,SBD,M,
Boys,82.1,DQ,Brandon Browning,Mabank,78.93,215.46,138.35,192.78,,Single-ply,SBD,M,
Boys,89.81,1,Nick Rodriguez #9,Tyler Chapel Hill,87.82,188.24,142.88,201.85,532.97,Single-ply,SBD,M,
Boys,89.81,2,Wilson Basden,Fairfield,85.37,210.92,111.13,208.65,530.7,Single-ply,SBD,M,
Boys,89.81,3,Kolby Smith,Mabank,89.81,197.31,117.93,213.19,528.44,Single-ply,SBD,M,
Boys,89.81,4,Caden Yates,Argyle,89.27,197.31,106.59,219.99,523.9,Single-ply,SBD,M,
Boys,89.81,5,Dorean Jordan,Kerens,86.18,204.12,108.86,204.12,517.1,Single-ply,SBD,M,
Boys,89.81,6,Caleb Chase,Mabank,86.82,201.85,127.01,183.7,512.56,Single-ply,SBD,M,
Boys,89.81,7,Logan Schwering,Athens,86.45,190.51,115.67,197.31,503.49,Single-ply,SBD,M,
Boys,89.81,8,David Ruiz,Kaufman,89.81,172.37,120.2,195.04,487.61,Single-ply,SBD,M,
Boys,89.81,9,Dawson Duty,Canton,88.45,190.51,115.67,179.17,485.34,Single-ply,SBD,M,
Boys,89.81,10,Chris Thornley,Gilmer,89.72,188.24,97.52,181.44,467.2,Single-ply,SBD,M,
Boys,89.81,11,Logan Thomas,Kaufman,86.91,158.76,106.59,172.37,437.72,Single-ply,SBD,M,
Boys,89.81,12,Armondo Mendoza,Kemp,84.82,158.76,102.06,165.56,426.38,Single-ply,SBD,M,
Boys,89.81,13,Gabe Hill,Tyler Chapel Hill,86.55,138.35,77.11,158.76,374.21,Single-ply,SBD,M,
Boys,89.81,14,Andrew Adams #5,Malakoff,85.91,145.15,72.57,154.22,371.95,Single-ply,SBD,M,
Boys,89.81,15,Kyle Morgan,Malakoff,84.82,133.81,99.79,127.01,360.61,Single-ply,SBD,M,
Boys,89.81,16,Brandon Soules,Fruitvale,88.36,90.72,72.57,102.06,265.35,Single-ply,SBD,M,
Boys,89.81,DQ,Matthew Smith #32,Kerens,87.09,136.08,79.38,,,Single-ply,SBD,M,
Boys,89.81,DQ,Dylan Stairs,Mabank,89.36,190.51,136.08,197.31,,Single-ply,SBD,M,
Boys,99.79,1,Samuel Bowker,Mabank,92.53,235.87,181.44,222.26,639.57,Single-ply,SBD,M,
Boys,99.79,2,K'Vionne Davis,Malakoff,91.26,283.5,138.35,213.19,635.03,Single-ply,SBD,M,
Boys,99.79,3,Kaizen Burrows,Mabank,95.89,222.26,131.54,192.78,546.58,Single-ply,SBD,M,
Boys,99.79,4,Landon Salinas,Fairfield,99.52,231.33,129.27,183.7,544.31,Single-ply,SBD,M,
Boys,99.79,5,Antonio Rodriguez,Kerens,94.08,197.31,127.01,188.24,512.56,Single-ply,SBD,M,
Boys,99.79,6,Enrique Apresa,Kemp,94.89,192.78,113.4,195.04,501.22,Single-ply,SBD,M,
Boys,99.79,7,Will Bowers,Kaufman,95.89,183.7,113.4,183.7,480.81,Single-ply,SBD,M,
Boys,99.79,8,Julian Gonzalez,Tyler Chapel Hill,98.61,181.44,120.2,167.83,469.47,Single-ply,SBD,M,
Boys,99.79,9,Aiden Arterberry,Gilmer,96.43,165.56,104.33,172.37,442.25,Single-ply,SBD,M,
Boys,99.79,10,James Newell,Malakoff,93.98,142.88,102.06,156.49,401.43,Single-ply,SBD,M,
Boys,99.79,11,Jake Hartjen,Argyle,98.25,151.95,79.38,170.1,401.43,Single-ply,SBD,M,
Boys,99.79,12,Miles Burke,Waxahachie Life,97.98,147.42,92.99,140.61,381.02,Single-ply,SBD,M,
Boys,99.79,DQ,Seth Jordan,Gilmer,94.8,219.99,,,,Single-ply,SBD,M,
Boys,109.77,1,Nick Rubien,Argyle,108.95,201.85,111.13,208.65,521.63,Single-ply,SBD,M,
Boys,109.77,2,Patrick Crabtree,Kerens,103.06,204.12,124.74,188.24,517.1,Single-ply,SBD,M,
Boys,109.77,3,Jacory Seaton,Tyler Chapel Hill,104.42,192.78,124.74,188.24,505.76,Single-ply,SBD,M,
Boys,109.77,4,Eric Espinosa,Kaufman,109.13,183.7,102.06,197.31,483.08,Single-ply,SBD,M,
Boys,109.77,5,Joel Zarate,Waxahachie Life,104.96,188.24,115.67,163.29,467.2,Single-ply,SBD,M,
Boys,109.77,6,Hunter Bartram,Argyle,106.68,185.97,92.99,170.1,449.06,Single-ply,SBD,M,
Boys,109.77,7,Elijah Smith,Waxahachie Life,105.32,174.63,102.06,165.56,442.25,Single-ply,SBD,M,
Boys,109.77,8,Tyler Callaway,Fruitvale,107.5,185.97,90.72,156.49,433.18,Single-ply,SBD,M,
Boys,124.74,1,Austin Criswell,Argyle,124.38,272.16,124.74,244.94,641.83,Single-ply,SBD,M,
Boys,124.74,2,Branden Mathews,Kaufman,119.93,217.72,140.61,210.92,569.26,Single-ply,SBD,M,
Boys,124.74,3,Rafael Page,Mabank,124.65,217.72,124.74,199.58,542.04,Single-ply,SBD,M,
Boys,124.74,4,Jesse Rodriguez,Malakoff,113.67,217.72,122.47,188.24,528.44,Single-ply,SBD,M,
Boys,124.74,5,Corey Johnson #2,Tyler Chapel Hill,118.12,208.65,127.01,192.78,528.44,Single-ply,SBD,M,
Boys,124.74,6,Zach Carranza,Athens,116.03,188.24,127.01,174.63,489.88,Single-ply,SBD,M,
Boys,124.74,7,Dillon Barrows,Athens,123.1,190.51,106.59,174.63,471.74,Single-ply,SBD,M,
Boys,124.74,8,Jonathan Killion,Waxahachie Life,111.67,192.78,97.52,165.56,455.86,Single-ply,SBD,M,
Boys,124.74,9,Judson McNaughton,Malakoff,119.02,174.63,113.4,147.42,435.45,Single-ply,SBD,M,
Boys,124.74,10,Treyton Wilson,Waxahachie Life,111.86,176.9,88.45,165.56,430.91,Single-ply,SBD,M,
Boys,124.74,11,Tyler Roberts,Argyle,122.2,163.29,81.65,176.9,421.84,Single-ply,SBD,M,
Boys,124.74,DQ,Alonso Tijerina,Kaufman,120.11,217.72,,,,Single-ply,SBD,M,
Boys,139.71,1,Keldrick Davis,Tyler Chapel Hill,128.64,206.38,127.01,201.85,535.24,Single-ply,SBD,M,
Boys,139.71,2,Jonah Neal,Waxahachie Life,136.98,183.7,124.74,210.92,519.36,Single-ply,SBD,M,
Boys,139.71,3,Zanthony Jackson,Malakoff,135.35,213.19,124.74,174.63,512.56,Single-ply,SBD,M,
Boys,139.71,4,Zackary Jackson,Malakoff,129.82,217.72,113.4,179.17,510.29,Single-ply,SBD,M,
Boys,139.71,5,Thor Johansson,Argyle,126.28,201.85,99.79,192.78,494.42,Single-ply,SBD,M,
Boys,139.71,6,David Zavala,Athens,125.28,165.56,97.52,161.03,424.11,Single-ply,SBD,M,
Boys,139.71+,1,Treyden Johnson,Fairfield,163.29,272.16,163.29,249.48,684.92,Single-ply,SBD,M,
Boys,139.71+,2,Logan Walker,Fairfield,165.11,294.84,163.29,215.46,673.58,Single-ply,SBD,M,
Boys,139.71+,3,Bosque Monico,Fairfield,144.24,272.16,145.15,204.12,621.42,Single-ply,SBD,M,
